{
  "__type__": "cc.AnimationClip",
  "_name": "egg-shake",
  "_objFlags": 0,
  "_native": "",
  "_duration": 0.6666666666666666,
  "sample": 60,
  "speed": 1,
  "wrapMode": 2,
  "curveData": {
    "props": {
      "angle": [
        {
          "frame": 0,
          "value": 10
        },
        {
          "frame": 0.16666666666666666,
          "value": -15
        },
        {
          "frame": 0.3333333333333333,
          "value": 5
        },
        {
          "frame": 0.5,
          "value": -10
        },
        {
          "frame": 0.6666666666666666,
          "value": 0
        }
      ]
    },
    "paths": {
      "particle": {
        "comps": {
          "cc.ParticleSystem": {
            "speedVar": [
              {
                "frame": 0,
                "value": 600
              },
              {
                "frame": 0.16666666666666666,
                "value": 740
              },
              {
                "frame": 0.3333333333333333,
                "value": 840
              },
              {
                "frame": 0.5,
                "value": 940
              },
              {
                "frame": 0.6666666666666666,
                "value": 1100
              }
            ]
          }
        }
      }
    }
  },
  "events": []
}