{
  "__type__": "cc.AnimationClip",
  "_name": "ItemNodeOnInit",
  "_objFlags": 0,
  "_native": "",
  "_duration": 0.38333333333333336,
  "sample": 60,
  "speed": 1,
  "wrapMode": 1,
  "curveData": {
    "props": {
      "scale": [
        {
          "frame": 0,
          "value": {
            "__type__": "cc.Vec2",
            "x": 0.2,
            "y": 0.2
          }
        },
        {
          "frame": 0.25,
          "value": {
            "__type__": "cc.Vec2",
            "x": 1.1,
            "y": 1.1
          }
        },
        {
          "frame": 0.3333333333333333,
          "value": {
            "__type__": "cc.Vec2",
            "x": 0.9,
            "y": 0.9
          }
        },
        {
          "frame": 0.38333333333333336,
          "value": {
            "__type__": "cc.Vec2",
            "x": 1,
            "y": 1
          }
        }
      ]
    }
  },
  "events": []
}