{
  "Name": "Y3.NA.AS.UATCS.1B",
  "resolver": {
    "generator": "QuestionGenerator. Date:Mon Jan 20 2020 19:29:14 GMT+1100 (AUS Eastern Daylight Time)",
    "logId": "1579508954709"
  },
  "version": 2,
  "design": [
    {
      "version": 2,
      "qaName": "Y3.NA.AS.UATCS.1B",
      "qaType": 0
    },
    {
      "configure": "keyboards"
    },
    {
      "configure": "states",
      "incorrect": {
        "image": {
          "link": "QaElement/qa_incorrect.png",
          "key": "qa_incorrect.png",
          "position": "left-top",
          "anchor": [
            0.5,
            0.5
          ],
          "scale": 0.5
        },
        "rect": {
          "radius": 5,
          "stroke": 3,
          "border": 16711680
        }
      },
      "correct": {
        "image": {
          "link": "QaElement/qa_correct.png",
          "key": "qa_correct.png",
          "position": "left-top",
          "anchor": [
            0.5,
            0.5
          ],
          "scale": 0.5
        },
        "rect": {
          "radius": 5,
          "stroke": 3,
          "border": 3407667
        }
      },
      "selected": {
        "rect": {
          "radius": 5,
          "stroke": 3,
          "border": 6737151
        }
      }
    },
    {
      "graphicId": 1,
      "objPrivate": {
        "keyImage": "qa_correct.png",
        "linkImage": "QaElement/qa_correct.png",
        "preload": true,
        "Click": {},
        "DragDrop": {},
        "multiDragDrop": {}
      },
      "x": 0,
      "y": 0,
      "w": 0,
      "h": 0,
      "name": "item_2_1",
      "id": 3
    },
    {
      "graphicId": 1,
      "objPrivate": {
        "keyImage": "qa_incorrect.png",
        "linkImage": "QaElement/qa_incorrect.png",
        "preload": true,
        "Click": {},
        "DragDrop": {},
        "multiDragDrop": {}
      },
      "x": 0,
      "y": 0,
      "w": 0,
      "h": 0,
      "name": "item_3_1",
      "id": 4
    },
    {
      "graphicId": 1,
      "objPrivate": {
        "anchorX": 0,
        "anchorY": 0,
        "keyImage": "bg8.png",
        "linkImage": "Develop/ImageQAs/General/BG_Y1-2-3/style_3/bg8.png",
        "Click": {},
        "DragDrop": {},
        "multiDragDrop": {}
      },
      "x": 0,
      "y": 0,
      "w": 800,
      "h": 450,
      "name": "item_4_1",
      "id": 5
    },
    {
      "graphicId": 3,
      "objPrivate": {
        "anchorX": 0.5,
        "anchorY": 0.5,
        "style": {
          "font": "KGPrimaryItalics",
          "fontStyle": "normal",
          "fontVariant": "normal",
          "fontWeight": "normal",
          "fontSize": 40,
          "lineHeight": 25,
          "lineSpacing": -5,
          "backgroundColor": null,
          "fill": "black",
          "align": "center",
          "boundsAlignH": "center",
          "boundsAlignV": "center",
          "stroke": "white",
          "strokeThickness": 2,
          "wordWrap": true,
          "wordWrapWidth": 800,
          "maxLines": 0,
          "tabs": 0
        },
        "text": "Using the compensation strategy, solve 20 + 86.",
        "Click": {},
        "DragDrop": {},
        "multiDragDrop": {}
      },
      "x": 400,
      "y": 40,
      "w": 0,
      "h": 0,
      "name": "item_5_3",
      "id": 6
    },
    {
      "graphicId": 2,
      "objPrivate": {
        "centerX": 0,
        "centerY": 0,
        "lineWidth": 0,
        "lineColor": 26316,
        "radius": 0,
        "Click": {},
        "DragDrop": {},
        "multiDragDrop": {},
        "action": {
          "name": "list_0",
          "type": "list",
          "x": 400,
          "y": 105,
          "anchor": {
            "x": 0.5,
            "y": 0.5
          },
          "dir": "horizontal",
          "spacing": 0
        }
      },
      "x": 0,
      "y": 0,
      "w": 0,
      "h": 0,
      "name": "item_6_2",
      "id": 7
    },
    {
      "graphicId": 1,
      "objPrivate": {
        "anchorX": 0.5,
        "anchorY": 0.5,
        "keyImage": "2_5.png",
        "linkImage": "Develop/ImageQAs/Y3.NA.AS.UATCS.1B/2_5.png",
        "Click": {},
        "DragDrop": {},
        "multiDragDrop": {},
        "action": {
          "name": "list_0_item_0",
          "itemRef": {
            "align": "middle",
            "parent": "list_0",
            "index": 0,
            "anchor": "auto-fit",
            "count": 1
          }
        }
      },
      "x": 0,
      "y": 0,
      "w": 0,
      "h": 0,
      "name": "item_7_1",
      "id": 8
    },
    {
      "graphicId": 1,
      "objPrivate": {
        "anchorX": 0.5,
        "anchorY": 0.5,
        "keyImage": "0_5.png",
        "linkImage": "Develop/ImageQAs/Y3.NA.AS.UATCS.1B/0_5.png",
        "Click": {},
        "DragDrop": {},
        "multiDragDrop": {},
        "action": {
          "name": "list_0_item_1",
          "itemRef": {
            "align": "middle",
            "parent": "list_0",
            "index": 1,
            "anchor": "auto-fit",
            "count": 1
          }
        }
      },
      "x": 0,
      "y": 0,
      "w": 0,
      "h": 0,
      "name": "item_8_1",
      "id": 9
    },
    {
      "graphicId": 3,
      "objPrivate": {
        "anchorX": 0.5,
        "anchorY": 0.5,
        "style": {
          "font": "KGPrimaryItalics",
          "fontStyle": "normal",
          "fontVariant": "normal",
          "fontWeight": "normal",
          "fontSize": 25,
          "lineHeight": 25,
          "lineSpacing": -5,
          "backgroundColor": null,
          "fill": "#0066cc",
          "align": "center",
          "boundsAlignH": "center",
          "boundsAlignV": "center",
          "stroke": "black",
          "strokeThickness": 0,
          "wordWrap": true,
          "wordWrapWidth": 800,
          "maxLines": 0,
          "tabs": 0
        },
        "text": "   ",
        "Click": {},
        "DragDrop": {},
        "multiDragDrop": {},
        "action": {
          "name": "list_0_item_2",
          "itemRef": {
            "align": "middle",
            "parent": "list_0",
            "index": 2,
            "anchor": "auto-fit",
            "count": 1
          }
        }
      },
      "x": 0,
      "y": 0,
      "w": 0,
      "h": 0,
      "name": "item_9_3",
      "id": 10
    },
    {
      "graphicId": 1,
      "objPrivate": {
        "anchorX": 0.5,
        "anchorY": 0.5,
        "keyImage": "plus_5.png",
        "linkImage": "Develop/ImageQAs/Y3.NA.AS.UATCS.1B/plus_5.png",
        "Click": {},
        "DragDrop": {},
        "multiDragDrop": {},
        "action": {
          "name": "list_0_item_3",
          "itemRef": {
            "align": "middle",
            "parent": "list_0",
            "index": 3,
            "anchor": "auto-fit",
            "count": 1
          }
        }
      },
      "x": 0,
      "y": 0,
      "w": 0,
      "h": 0,
      "name": "item_10_1",
      "id": 11
    },
    {
      "graphicId": 3,
      "objPrivate": {
        "anchorX": 0.5,
        "anchorY": 0.5,
        "style": {
          "font": "KGPrimaryItalics",
          "fontStyle": "normal",
          "fontVariant": "normal",
          "fontWeight": "normal",
          "fontSize": 25,
          "lineHeight": 25,
          "lineSpacing": -5,
          "backgroundColor": null,
          "fill": "#0066cc",
          "align": "center",
          "boundsAlignH": "center",
          "boundsAlignV": "center",
          "stroke": "black",
          "strokeThickness": 0,
          "wordWrap": true,
          "wordWrapWidth": 800,
          "maxLines": 0,
          "tabs": 0
        },
        "text": "   ",
        "Click": {},
        "DragDrop": {},
        "multiDragDrop": {},
        "action": {
          "name": "list_0_item_4",
          "itemRef": {
            "align": "middle",
            "parent": "list_0",
            "index": 4,
            "anchor": "auto-fit",
            "count": 1
          }
        }
      },
      "x": 0,
      "y": 0,
      "w": 0,
      "h": 0,
      "name": "item_11_3",
      "id": 12
    },
    {
      "graphicId": 1,
      "objPrivate": {
        "anchorX": 0.5,
        "anchorY": 0.5,
        "keyImage": "8_5.png",
        "linkImage": "Develop/ImageQAs/Y3.NA.AS.UATCS.1B/8_5.png",
        "Click": {},
        "DragDrop": {},
        "multiDragDrop": {},
        "action": {
          "name": "list_0_item_5",
          "itemRef": {
            "align": "middle",
            "parent": "list_0",
            "index": 5,
            "anchor": "auto-fit",
            "count": 1
          }
        }
      },
      "x": 0,
      "y": 0,
      "w": 0,
      "h": 0,
      "name": "item_12_1",
      "id": 13
    },
    {
      "graphicId": 1,
      "objPrivate": {
        "anchorX": 0.5,
        "anchorY": 0.5,
        "keyImage": "6_5.png",
        "linkImage": "Develop/ImageQAs/Y3.NA.AS.UATCS.1B/6_5.png",
        "Click": {},
        "DragDrop": {},
        "multiDragDrop": {},
        "action": {
          "name": "list_0_item_6",
          "itemRef": {
            "align": "middle",
            "parent": "list_0",
            "index": 6,
            "anchor": "auto-fit",
            "count": 1
          }
        }
      },
      "x": 0,
      "y": 0,
      "w": 0,
      "h": 0,
      "name": "item_13_1",
      "id": 14
    },
    {
      "graphicId": 2,
      "objPrivate": {
        "centerX": 0,
        "centerY": 0,
        "lineWidth": 0,
        "lineColor": 26316,
        "radius": 0,
        "Click": {},
        "DragDrop": {},
        "multiDragDrop": {},
        "action": {
          "name": "list_1",
          "type": "list",
          "x": 420,
          "y": 185,
          "anchor": {
            "x": 1,
            "y": 0.5
          },
          "dir": "horizontal",
          "spacing": 0
        }
      },
      "x": 0,
      "y": 0,
      "w": 0,
      "h": 0,
      "name": "item_14_2",
      "id": 15
    },
    {
      "graphicId": 1,
      "objPrivate": {
        "anchorX": 0.5,
        "anchorY": 0.5,
        "keyImage": "2_5.png",
        "linkImage": "Develop/ImageQAs/Y3.NA.AS.UATCS.1B/2_5.png",
        "Click": {},
        "DragDrop": {},
        "multiDragDrop": {},
        "action": {
          "name": "list_1_item_0",
          "itemRef": {
            "align": "middle",
            "parent": "list_1",
            "index": 0,
            "anchor": "auto-fit",
            "count": 1
          }
        }
      },
      "x": 0,
      "y": 0,
      "w": 0,
      "h": 0,
      "name": "item_15_1",
      "id": 16
    },
    {
      "graphicId": 1,
      "objPrivate": {
        "anchorX": 0.5,
        "anchorY": 0.5,
        "keyImage": "0_5.png",
        "linkImage": "Develop/ImageQAs/Y3.NA.AS.UATCS.1B/0_5.png",
        "Click": {},
        "DragDrop": {},
        "multiDragDrop": {},
        "action": {
          "name": "list_1_item_1",
          "itemRef": {
            "align": "middle",
            "parent": "list_1",
            "index": 1,
            "anchor": "auto-fit",
            "count": 1
          }
        }
      },
      "x": 0,
      "y": 0,
      "w": 0,
      "h": 0,
      "name": "item_16_1",
      "id": 17
    },
    {
      "graphicId": 3,
      "objPrivate": {
        "anchorX": 0.5,
        "anchorY": 0.5,
        "style": {
          "font": "KGPrimaryItalics",
          "fontStyle": "normal",
          "fontVariant": "normal",
          "fontWeight": "normal",
          "fontSize": 25,
          "lineHeight": 25,
          "lineSpacing": -5,
          "backgroundColor": null,
          "fill": "#0066cc",
          "align": "center",
          "boundsAlignH": "center",
          "boundsAlignV": "center",
          "stroke": "black",
          "strokeThickness": 0,
          "wordWrap": true,
          "wordWrapWidth": 800,
          "maxLines": 0,
          "tabs": 0
        },
        "text": "   ",
        "Click": {},
        "DragDrop": {},
        "multiDragDrop": {},
        "action": {
          "name": "list_1_item_2",
          "itemRef": {
            "align": "middle",
            "parent": "list_1",
            "index": 2,
            "anchor": "auto-fit",
            "count": 1
          }
        }
      },
      "x": 0,
      "y": 0,
      "w": 0,
      "h": 0,
      "name": "item_17_3",
      "id": 18
    },
    {
      "graphicId": 1,
      "objPrivate": {
        "anchorX": 0.5,
        "anchorY": 0.5,
        "keyImage": "plus_5.png",
        "linkImage": "Develop/ImageQAs/Y3.NA.AS.UATCS.1B/plus_5.png",
        "Click": {},
        "DragDrop": {},
        "multiDragDrop": {},
        "action": {
          "name": "list_1_item_3",
          "itemRef": {
            "align": "middle",
            "parent": "list_1",
            "index": 3,
            "anchor": "auto-fit",
            "count": 1
          }
        }
      },
      "x": 0,
      "y": 0,
      "w": 0,
      "h": 0,
      "name": "item_18_1",
      "id": 19
    },
    {
      "graphicId": 3,
      "objPrivate": {
        "anchorX": 0.5,
        "anchorY": 0.5,
        "style": {
          "font": "KGPrimaryItalics",
          "fontStyle": "normal",
          "fontVariant": "normal",
          "fontWeight": "normal",
          "fontSize": 25,
          "lineHeight": 25,
          "lineSpacing": -5,
          "backgroundColor": null,
          "fill": "#0066cc",
          "align": "center",
          "boundsAlignH": "center",
          "boundsAlignV": "center",
          "stroke": "black",
          "strokeThickness": 0,
          "wordWrap": true,
          "wordWrapWidth": 800,
          "maxLines": 0,
          "tabs": 0
        },
        "text": "   ",
        "Click": {},
        "DragDrop": {},
        "multiDragDrop": {},
        "action": {
          "name": "list_1_item_4",
          "itemRef": {
            "align": "middle",
            "parent": "list_1",
            "index": 4,
            "anchor": "auto-fit",
            "count": 1
          }
        }
      },
      "x": 0,
      "y": 0,
      "w": 0,
      "h": 0,
      "name": "item_19_3",
      "id": 20
    },
    {
      "graphicId": 1,
      "objPrivate": {
        "anchorX": 0.5,
        "anchorY": 0.5,
        "keyImage": "9_5.png",
        "linkImage": "Develop/ImageQAs/Y3.NA.AS.UATCS.1B/9_5.png",
        "Click": {},
        "DragDrop": {},
        "multiDragDrop": {},
        "action": {
          "name": "list_1_item_5",
          "itemRef": {
            "align": "middle",
            "parent": "list_1",
            "index": 5,
            "anchor": "auto-fit",
            "count": 1
          }
        }
      },
      "x": 0,
      "y": 0,
      "w": 0,
      "h": 0,
      "name": "item_20_1",
      "id": 21
    },
    {
      "graphicId": 1,
      "objPrivate": {
        "anchorX": 0.5,
        "anchorY": 0.5,
        "keyImage": "0_5.png",
        "linkImage": "Develop/ImageQAs/Y3.NA.AS.UATCS.1B/0_5.png",
        "Click": {},
        "DragDrop": {},
        "multiDragDrop": {},
        "action": {
          "name": "list_1_item_6",
          "itemRef": {
            "align": "middle",
            "parent": "list_1",
            "index": 6,
            "anchor": "auto-fit",
            "count": 1
          }
        }
      },
      "x": 0,
      "y": 0,
      "w": 0,
      "h": 0,
      "name": "item_21_1",
      "id": 22
    },
    {
      "graphicId": 2,
      "objPrivate": {
        "centerX": 0,
        "centerY": 0,
        "lineWidth": 0,
        "lineColor": 26316,
        "radius": 0,
        "Click": {},
        "DragDrop": {},
        "multiDragDrop": {},
        "action": {
          "name": "list_2",
          "type": "list",
          "x": 430,
          "y": 185,
          "anchor": {
            "x": 0,
            "y": 0.5
          },
          "dir": "horizontal",
          "spacing": 0
        }
      },
      "x": 0,
      "y": 0,
      "w": 0,
      "h": 0,
      "name": "item_22_2",
      "id": 23
    },
    {
      "graphicId": 1,
      "objPrivate": {
        "anchorX": 0.5,
        "anchorY": 0.5,
        "keyImage": "equal_5.png",
        "linkImage": "Develop/ImageQAs/Y3.NA.AS.UATCS.1B/equal_5.png",
        "Click": {},
        "DragDrop": {},
        "multiDragDrop": {},
        "action": {
          "name": "list_2_item_0",
          "itemRef": {
            "align": "middle",
            "parent": "list_2",
            "index": 0,
            "anchor": "auto-fit",
            "count": 1
          }
        }
      },
      "x": 0,
      "y": 0,
      "w": 0,
      "h": 0,
      "name": "item_23_1",
      "id": 24
    },
    {
      "graphicId": 3,
      "objPrivate": {
        "anchorX": 0.5,
        "anchorY": 0.5,
        "style": {
          "font": "KGPrimaryItalics",
          "fontStyle": "normal",
          "fontVariant": "normal",
          "fontWeight": "normal",
          "fontSize": 25,
          "lineHeight": 25,
          "lineSpacing": -5,
          "backgroundColor": null,
          "fill": "#0066cc",
          "align": "center",
          "boundsAlignH": "center",
          "boundsAlignV": "center",
          "stroke": "black",
          "strokeThickness": 0,
          "wordWrap": true,
          "wordWrapWidth": 800,
          "maxLines": 0,
          "tabs": 0
        },
        "text": "   ",
        "Click": {},
        "DragDrop": {},
        "multiDragDrop": {},
        "action": {
          "name": "list_2_item_1",
          "itemRef": {
            "align": "middle",
            "parent": "list_2",
            "index": 1,
            "anchor": "auto-fit",
            "count": 1
          }
        }
      },
      "x": 0,
      "y": 0,
      "w": 0,
      "h": 0,
      "name": "item_24_3",
      "id": 25
    },
    {
      "graphicId": 1,
      "objPrivate": {
        "anchorX": 0.5,
        "anchorY": 0.5,
        "keyImage": "box.png",
        "linkImage": "Develop/ImageQAs/Y3.NA.AS.UATCS.1B/box.png",
        "Click": {},
        "DragDrop": {},
        "multiDragDrop": {},
        "action": {
          "name": "list_2_item_2",
          "itemRef": {
            "align": "middle",
            "parent": "list_2",
            "index": 2,
            "anchor": "auto-fit",
            "count": 1
          }
        }
      },
      "x": 0,
      "y": 0,
      "w": 0,
      "h": 0,
      "name": "item_25_1",
      "id": 26
    },
    {
      "graphicId": 2,
      "x": -40.5,
      "y": -15.5,
      "objPrivate": {
        "centerX": 40.5,
        "centerY": 15.5,
        "lineWidth": 0,
        "lineColor": 0,
        "radius": 5,
        "Click": {},
        "DragDrop": {},
        "multiDragDrop": {},
        "action": {
          "name": "choice_input_3",
          "type": "input",
          "multiple": false,
          "toggle": false,
          "keyboard": "numbers1",
          "dataType": "auto",
          "maxLength": 3,
          "resultPosition": "right",
          "spacing": 0,
          "tabOrder": 0,
          "fontSize": 40,
          "itemRef": {
            "align": "middle",
            "parent": "list_2",
            "index": 2,
            "anchor": "auto-fit",
            "count": 2
          }
        }
      },
      "w": 81,
      "h": 31,
      "name": "item_26_2",
      "id": 27
    },
    {
      "graphicId": 3,
      "objPrivate": {
        "anchorX": 0.5,
        "anchorY": 0.5,
        "style": {
          "font": "KGPrimaryItalics",
          "fontStyle": "normal",
          "fontVariant": "normal",
          "fontWeight": "normal",
          "fontSize": 40,
          "lineHeight": 25,
          "lineSpacing": -5,
          "backgroundColor": null,
          "fill": "black",
          "align": "center",
          "boundsAlignH": "center",
          "boundsAlignV": "center",
          "stroke": "white",
          "strokeThickness": 2,
          "wordWrap": false,
          "wordWrapWidth": 800,
          "maxLines": 0,
          "tabs": 0,
          "width": 100,
          "height": 40,
          "textcolor": "#0066cc",
          "fontFamily": "KGPrimaryItalics",
          "textAlign": "center",
          "borderRadius": 5,
          "borderStyle": "solid",
          "borderWidth": 2,
          "borderColor": "#66ccff",
          "hidden": false,
          "maxLength": 500,
          "autofocus": false
        },
        "text": "",
        "Click": {},
        "DragDrop": {},
        "multiDragDrop": {},
        "action": {
          "name": "choice_input_3",
          "type": "input",
          "multiple": false,
          "toggle": false,
          "keyboard": "numbers1",
          "dataType": "auto",
          "maxLength": 3,
          "resultPosition": "right",
          "spacing": 0,
          "tabOrder": 0,
          "fontSize": 40,
          "itemRef": {
            "align": "middle",
            "parent": "list_2",
            "index": 2,
            "anchor": "auto-fit",
            "count": 3
          }
        }
      },
      "x": 0,
      "y": 2,
      "w": 61,
      "h": 31,
      "name": "item_27_3",
      "id": 28
    },
    {
      "graphicId": 2,
      "objPrivate": {
        "centerX": 0,
        "centerY": 0,
        "lineWidth": 0,
        "lineColor": 26316,
        "radius": 0,
        "Click": {},
        "DragDrop": {},
        "multiDragDrop": {},
        "action": {
          "name": "list_4",
          "type": "list",
          "x": 420,
          "y": 265,
          "anchor": {
            "x": 1,
            "y": 0.5
          },
          "dir": "horizontal",
          "spacing": 0
        }
      },
      "x": 0,
      "y": 0,
      "w": 0,
      "h": 0,
      "name": "item_28_2",
      "id": 29
    },
    {
      "graphicId": 1,
      "objPrivate": {
        "anchorX": 0.5,
        "anchorY": 0.5,
        "keyImage": "box.png",
        "linkImage": "Develop/ImageQAs/Y3.NA.AS.UATCS.1B/box.png",
        "Click": {},
        "DragDrop": {},
        "multiDragDrop": {},
        "action": {
          "name": "list_4_item_0",
          "itemRef": {
            "align": "middle",
            "parent": "list_4",
            "index": 0,
            "anchor": "auto-fit",
            "count": 1
          }
        }
      },
      "x": 0,
      "y": 0,
      "w": 0,
      "h": 0,
      "name": "item_29_1",
      "id": 30
    },
    {
      "graphicId": 2,
      "x": -40.5,
      "y": -15.5,
      "objPrivate": {
        "centerX": 40.5,
        "centerY": 15.5,
        "lineWidth": 0,
        "lineColor": 0,
        "radius": 5,
        "Click": {},
        "DragDrop": {},
        "multiDragDrop": {},
        "action": {
          "name": "choice_input_5",
          "type": "input",
          "multiple": false,
          "toggle": false,
          "keyboard": "numbers1",
          "dataType": "auto",
          "maxLength": 3,
          "resultPosition": "left",
          "spacing": 0,
          "tabOrder": 0,
          "fontSize": 40,
          "itemRef": {
            "align": "middle",
            "parent": "list_4",
            "index": 0,
            "anchor": "auto-fit",
            "count": 2
          }
        }
      },
      "w": 81,
      "h": 31,
      "name": "item_30_2",
      "id": 31
    },
    {
      "graphicId": 3,
      "objPrivate": {
        "anchorX": 0.5,
        "anchorY": 0.5,
        "style": {
          "font": "KGPrimaryItalics",
          "fontStyle": "normal",
          "fontVariant": "normal",
          "fontWeight": "normal",
          "fontSize": 40,
          "lineHeight": 25,
          "lineSpacing": -5,
          "backgroundColor": null,
          "fill": "black",
          "align": "center",
          "boundsAlignH": "center",
          "boundsAlignV": "center",
          "stroke": "white",
          "strokeThickness": 2,
          "wordWrap": false,
          "wordWrapWidth": 800,
          "maxLines": 0,
          "tabs": 0,
          "width": 100,
          "height": 40,
          "textcolor": "#0066cc",
          "fontFamily": "KGPrimaryItalics",
          "textAlign": "center",
          "borderRadius": 5,
          "borderStyle": "solid",
          "borderWidth": 2,
          "borderColor": "#66ccff",
          "hidden": false,
          "maxLength": 500,
          "autofocus": false
        },
        "text": "",
        "Click": {},
        "DragDrop": {},
        "multiDragDrop": {},
        "action": {
          "name": "choice_input_5",
          "type": "input",
          "multiple": false,
          "toggle": false,
          "keyboard": "numbers1",
          "dataType": "auto",
          "maxLength": 3,
          "resultPosition": "left",
          "spacing": 0,
          "tabOrder": 0,
          "fontSize": 40,
          "itemRef": {
            "align": "middle",
            "parent": "list_4",
            "index": 0,
            "anchor": "auto-fit",
            "count": 3
          }
        }
      },
      "x": 0,
      "y": 2,
      "w": 61,
      "h": 31,
      "name": "item_31_3",
      "id": 32
    },
    {
      "graphicId": 3,
      "objPrivate": {
        "anchorX": 0.5,
        "anchorY": 0.5,
        "style": {
          "font": "KGPrimaryItalics",
          "fontStyle": "normal",
          "fontVariant": "normal",
          "fontWeight": "normal",
          "fontSize": 25,
          "lineHeight": 25,
          "lineSpacing": -5,
          "backgroundColor": null,
          "fill": "#0066cc",
          "align": "center",
          "boundsAlignH": "center",
          "boundsAlignV": "center",
          "stroke": "black",
          "strokeThickness": 0,
          "wordWrap": true,
          "wordWrapWidth": 800,
          "maxLines": 0,
          "tabs": 0
        },
        "text": "---",
        "Click": {},
        "DragDrop": {},
        "multiDragDrop": {},
        "action": {
          "name": "list_4_item_1",
          "itemRef": {
            "align": "middle",
            "parent": "list_4",
            "index": 1,
            "anchor": "auto-fit",
            "count": 1
          }
        }
      },
      "x": 0,
      "y": 0,
      "w": 0,
      "h": 0,
      "name": "item_32_3",
      "id": 33
    },
    {
      "graphicId": 1,
      "objPrivate": {
        "anchorX": 0.5,
        "anchorY": 0.5,
        "keyImage": "minus_5.png",
        "linkImage": "Develop/ImageQAs/Y3.NA.AS.UATCS.1B/minus_5.png",
        "Click": {},
        "DragDrop": {},
        "multiDragDrop": {},
        "action": {
          "name": "list_4_item_2",
          "itemRef": {
            "align": "middle",
            "parent": "list_4",
            "index": 2,
            "anchor": "auto-fit",
            "count": 1
          }
        }
      },
      "x": 0,
      "y": 0,
      "w": 0,
      "h": 0,
      "name": "item_33_1",
      "id": 34
    },
    {
      "graphicId": 3,
      "objPrivate": {
        "anchorX": 0.5,
        "anchorY": 0.5,
        "style": {
          "font": "KGPrimaryItalics",
          "fontStyle": "normal",
          "fontVariant": "normal",
          "fontWeight": "normal",
          "fontSize": 25,
          "lineHeight": 25,
          "lineSpacing": -5,
          "backgroundColor": null,
          "fill": "#0066cc",
          "align": "center",
          "boundsAlignH": "center",
          "boundsAlignV": "center",
          "stroke": "black",
          "strokeThickness": 0,
          "wordWrap": true,
          "wordWrapWidth": 800,
          "maxLines": 0,
          "tabs": 0
        },
        "text": "   ",
        "Click": {},
        "DragDrop": {},
        "multiDragDrop": {},
        "action": {
          "name": "list_4_item_3",
          "itemRef": {
            "align": "middle",
            "parent": "list_4",
            "index": 3,
            "anchor": "auto-fit",
            "count": 1
          }
        }
      },
      "x": 0,
      "y": 0,
      "w": 0,
      "h": 0,
      "name": "item_34_3",
      "id": 35
    },
    {
      "graphicId": 1,
      "objPrivate": {
        "anchorX": 0.5,
        "anchorY": 0.5,
        "keyImage": "4_5.png",
        "linkImage": "Develop/ImageQAs/Y3.NA.AS.UATCS.1B/4_5.png",
        "Click": {},
        "DragDrop": {},
        "multiDragDrop": {},
        "action": {
          "name": "list_4_item_4",
          "itemRef": {
            "align": "middle",
            "parent": "list_4",
            "index": 4,
            "anchor": "auto-fit",
            "count": 1
          }
        }
      },
      "x": 0,
      "y": 0,
      "w": 0,
      "h": 0,
      "name": "item_35_1",
      "id": 36
    },
    {
      "graphicId": 2,
      "objPrivate": {
        "centerX": 0,
        "centerY": 0,
        "lineWidth": 0,
        "lineColor": 26316,
        "radius": 0,
        "Click": {},
        "DragDrop": {},
        "multiDragDrop": {},
        "action": {
          "name": "list_6",
          "type": "list",
          "x": 430,
          "y": 265,
          "anchor": {
            "x": 0,
            "y": 0.5
          },
          "dir": "horizontal",
          "spacing": 0
        }
      },
      "x": 0,
      "y": 0,
      "w": 0,
      "h": 0,
      "name": "item_36_2",
      "id": 37
    },
    {
      "graphicId": 1,
      "objPrivate": {
        "anchorX": 0.5,
        "anchorY": 0.5,
        "keyImage": "equal_5.png",
        "linkImage": "Develop/ImageQAs/Y3.NA.AS.UATCS.1B/equal_5.png",
        "Click": {},
        "DragDrop": {},
        "multiDragDrop": {},
        "action": {
          "name": "list_6_item_0",
          "itemRef": {
            "align": "middle",
            "parent": "list_6",
            "index": 0,
            "anchor": "auto-fit",
            "count": 1
          }
        }
      },
      "x": 0,
      "y": 0,
      "w": 0,
      "h": 0,
      "name": "item_37_1",
      "id": 38
    },
    {
      "graphicId": 3,
      "objPrivate": {
        "anchorX": 0.5,
        "anchorY": 0.5,
        "style": {
          "font": "KGPrimaryItalics",
          "fontStyle": "normal",
          "fontVariant": "normal",
          "fontWeight": "normal",
          "fontSize": 25,
          "lineHeight": 25,
          "lineSpacing": -5,
          "backgroundColor": null,
          "fill": "#0066cc",
          "align": "center",
          "boundsAlignH": "center",
          "boundsAlignV": "center",
          "stroke": "black",
          "strokeThickness": 0,
          "wordWrap": true,
          "wordWrapWidth": 800,
          "maxLines": 0,
          "tabs": 0
        },
        "text": "   ",
        "Click": {},
        "DragDrop": {},
        "multiDragDrop": {},
        "action": {
          "name": "list_6_item_1",
          "itemRef": {
            "align": "middle",
            "parent": "list_6",
            "index": 1,
            "anchor": "auto-fit",
            "count": 1
          }
        }
      },
      "x": 0,
      "y": 0,
      "w": 0,
      "h": 0,
      "name": "item_38_3",
      "id": 39
    },
    {
      "graphicId": 1,
      "objPrivate": {
        "anchorX": 0.5,
        "anchorY": 0.5,
        "keyImage": "box.png",
        "linkImage": "Develop/ImageQAs/Y3.NA.AS.UATCS.1B/box.png",
        "Click": {},
        "DragDrop": {},
        "multiDragDrop": {},
        "action": {
          "name": "list_6_item_2",
          "itemRef": {
            "align": "middle",
            "parent": "list_6",
            "index": 2,
            "anchor": "auto-fit",
            "count": 1
          }
        }
      },
      "x": 0,
      "y": 0,
      "w": 0,
      "h": 0,
      "name": "item_39_1",
      "id": 40
    },
    {
      "graphicId": 2,
      "x": -40.5,
      "y": -15.5,
      "objPrivate": {
        "centerX": 40.5,
        "centerY": 15.5,
        "lineWidth": 0,
        "lineColor": 0,
        "radius": 5,
        "Click": {},
        "DragDrop": {},
        "multiDragDrop": {},
        "action": {
          "name": "choice_input_7",
          "type": "input",
          "multiple": false,
          "toggle": false,
          "keyboard": "numbers1",
          "dataType": "auto",
          "maxLength": 3,
          "resultPosition": "right",
          "spacing": 0,
          "tabOrder": 0,
          "fontSize": 40,
          "itemRef": {
            "align": "middle",
            "parent": "list_6",
            "index": 2,
            "anchor": "auto-fit",
            "count": 2
          }
        }
      },
      "w": 81,
      "h": 31,
      "name": "item_40_2",
      "id": 41
    },
    {
      "graphicId": 3,
      "objPrivate": {
        "anchorX": 0.5,
        "anchorY": 0.5,
        "style": {
          "font": "KGPrimaryItalics",
          "fontStyle": "normal",
          "fontVariant": "normal",
          "fontWeight": "normal",
          "fontSize": 40,
          "lineHeight": 25,
          "lineSpacing": -5,
          "backgroundColor": null,
          "fill": "black",
          "align": "center",
          "boundsAlignH": "center",
          "boundsAlignV": "center",
          "stroke": "white",
          "strokeThickness": 2,
          "wordWrap": false,
          "wordWrapWidth": 800,
          "maxLines": 0,
          "tabs": 0,
          "width": 100,
          "height": 40,
          "textcolor": "#0066cc",
          "fontFamily": "KGPrimaryItalics",
          "textAlign": "center",
          "borderRadius": 5,
          "borderStyle": "solid",
          "borderWidth": 2,
          "borderColor": "#66ccff",
          "hidden": false,
          "maxLength": 500,
          "autofocus": false
        },
        "text": "",
        "Click": {},
        "DragDrop": {},
        "multiDragDrop": {},
        "action": {
          "name": "choice_input_7",
          "type": "input",
          "multiple": false,
          "toggle": false,
          "keyboard": "numbers1",
          "dataType": "auto",
          "maxLength": 3,
          "resultPosition": "right",
          "spacing": 0,
          "tabOrder": 0,
          "fontSize": 40,
          "itemRef": {
            "align": "middle",
            "parent": "list_6",
            "index": 2,
            "anchor": "auto-fit",
            "count": 3
          }
        }
      },
      "x": 0,
      "y": 2,
      "w": 61,
      "h": 31,
      "name": "item_41_3",
      "id": 42
    },
    {
      "graphicId": 2,
      "objPrivate": {
        "centerX": 0,
        "centerY": 0,
        "lineWidth": 0,
        "lineColor": 26316,
        "radius": 0,
        "Click": {},
        "DragDrop": {},
        "multiDragDrop": {},
        "action": {
          "name": "list_8",
          "type": "list",
          "x": 420,
          "y": 345,
          "anchor": {
            "x": 1,
            "y": 0.5
          },
          "dir": "horizontal",
          "spacing": 0
        }
      },
      "x": 0,
      "y": 0,
      "w": 0,
      "h": 0,
      "name": "item_42_2",
      "id": 43
    },
    {
      "graphicId": 1,
      "objPrivate": {
        "anchorX": 0.5,
        "anchorY": 0.5,
        "keyImage": "2_5.png",
        "linkImage": "Develop/ImageQAs/Y3.NA.AS.UATCS.1B/2_5.png",
        "Click": {},
        "DragDrop": {},
        "multiDragDrop": {},
        "action": {
          "name": "list_8_item_0",
          "itemRef": {
            "align": "middle",
            "parent": "list_8",
            "index": 0,
            "anchor": "auto-fit",
            "count": 1
          }
        }
      },
      "x": 0,
      "y": 0,
      "w": 0,
      "h": 0,
      "name": "item_43_1",
      "id": 44
    },
    {
      "graphicId": 1,
      "objPrivate": {
        "anchorX": 0.5,
        "anchorY": 0.5,
        "keyImage": "0_5.png",
        "linkImage": "Develop/ImageQAs/Y3.NA.AS.UATCS.1B/0_5.png",
        "Click": {},
        "DragDrop": {},
        "multiDragDrop": {},
        "action": {
          "name": "list_8_item_1",
          "itemRef": {
            "align": "middle",
            "parent": "list_8",
            "index": 1,
            "anchor": "auto-fit",
            "count": 1
          }
        }
      },
      "x": 0,
      "y": 0,
      "w": 0,
      "h": 0,
      "name": "item_44_1",
      "id": 45
    },
    {
      "graphicId": 3,
      "objPrivate": {
        "anchorX": 0.5,
        "anchorY": 0.5,
        "style": {
          "font": "KGPrimaryItalics",
          "fontStyle": "normal",
          "fontVariant": "normal",
          "fontWeight": "normal",
          "fontSize": 25,
          "lineHeight": 25,
          "lineSpacing": -5,
          "backgroundColor": null,
          "fill": "#0066cc",
          "align": "center",
          "boundsAlignH": "center",
          "boundsAlignV": "center",
          "stroke": "black",
          "strokeThickness": 0,
          "wordWrap": true,
          "wordWrapWidth": 800,
          "maxLines": 0,
          "tabs": 0
        },
        "text": "   ",
        "Click": {},
        "DragDrop": {},
        "multiDragDrop": {},
        "action": {
          "name": "list_8_item_2",
          "itemRef": {
            "align": "middle",
            "parent": "list_8",
            "index": 2,
            "anchor": "auto-fit",
            "count": 1
          }
        }
      },
      "x": 0,
      "y": 0,
      "w": 0,
      "h": 0,
      "name": "item_45_3",
      "id": 46
    },
    {
      "graphicId": 1,
      "objPrivate": {
        "anchorX": 0.5,
        "anchorY": 0.5,
        "keyImage": "plus_5.png",
        "linkImage": "Develop/ImageQAs/Y3.NA.AS.UATCS.1B/plus_5.png",
        "Click": {},
        "DragDrop": {},
        "multiDragDrop": {},
        "action": {
          "name": "list_8_item_3",
          "itemRef": {
            "align": "middle",
            "parent": "list_8",
            "index": 3,
            "anchor": "auto-fit",
            "count": 1
          }
        }
      },
      "x": 0,
      "y": 0,
      "w": 0,
      "h": 0,
      "name": "item_46_1",
      "id": 47
    },
    {
      "graphicId": 3,
      "objPrivate": {
        "anchorX": 0.5,
        "anchorY": 0.5,
        "style": {
          "font": "KGPrimaryItalics",
          "fontStyle": "normal",
          "fontVariant": "normal",
          "fontWeight": "normal",
          "fontSize": 25,
          "lineHeight": 25,
          "lineSpacing": -5,
          "backgroundColor": null,
          "fill": "#0066cc",
          "align": "center",
          "boundsAlignH": "center",
          "boundsAlignV": "center",
          "stroke": "black",
          "strokeThickness": 0,
          "wordWrap": true,
          "wordWrapWidth": 800,
          "maxLines": 0,
          "tabs": 0
        },
        "text": "   ",
        "Click": {},
        "DragDrop": {},
        "multiDragDrop": {},
        "action": {
          "name": "list_8_item_4",
          "itemRef": {
            "align": "middle",
            "parent": "list_8",
            "index": 4,
            "anchor": "auto-fit",
            "count": 1
          }
        }
      },
      "x": 0,
      "y": 0,
      "w": 0,
      "h": 0,
      "name": "item_47_3",
      "id": 48
    },
    {
      "graphicId": 1,
      "objPrivate": {
        "anchorX": 0.5,
        "anchorY": 0.5,
        "keyImage": "8_5.png",
        "linkImage": "Develop/ImageQAs/Y3.NA.AS.UATCS.1B/8_5.png",
        "Click": {},
        "DragDrop": {},
        "multiDragDrop": {},
        "action": {
          "name": "list_8_item_5",
          "itemRef": {
            "align": "middle",
            "parent": "list_8",
            "index": 5,
            "anchor": "auto-fit",
            "count": 1
          }
        }
      },
      "x": 0,
      "y": 0,
      "w": 0,
      "h": 0,
      "name": "item_48_1",
      "id": 49
    },
    {
      "graphicId": 1,
      "objPrivate": {
        "anchorX": 0.5,
        "anchorY": 0.5,
        "keyImage": "6_5.png",
        "linkImage": "Develop/ImageQAs/Y3.NA.AS.UATCS.1B/6_5.png",
        "Click": {},
        "DragDrop": {},
        "multiDragDrop": {},
        "action": {
          "name": "list_8_item_6",
          "itemRef": {
            "align": "middle",
            "parent": "list_8",
            "index": 6,
            "anchor": "auto-fit",
            "count": 1
          }
        }
      },
      "x": 0,
      "y": 0,
      "w": 0,
      "h": 0,
      "name": "item_49_1",
      "id": 50
    },
    {
      "graphicId": 2,
      "objPrivate": {
        "centerX": 0,
        "centerY": 0,
        "lineWidth": 0,
        "lineColor": 26316,
        "radius": 0,
        "Click": {},
        "DragDrop": {},
        "multiDragDrop": {},
        "action": {
          "name": "list_9",
          "type": "list",
          "x": 430,
          "y": 345,
          "anchor": {
            "x": 0,
            "y": 0.5
          },
          "dir": "horizontal",
          "spacing": 0
        }
      },
      "x": 0,
      "y": 0,
      "w": 0,
      "h": 0,
      "name": "item_50_2",
      "id": 51
    },
    {
      "graphicId": 1,
      "objPrivate": {
        "anchorX": 0.5,
        "anchorY": 0.5,
        "keyImage": "equal_5.png",
        "linkImage": "Develop/ImageQAs/Y3.NA.AS.UATCS.1B/equal_5.png",
        "Click": {},
        "DragDrop": {},
        "multiDragDrop": {},
        "action": {
          "name": "list_9_item_0",
          "itemRef": {
            "align": "middle",
            "parent": "list_9",
            "index": 0,
            "anchor": "auto-fit",
            "count": 1
          }
        }
      },
      "x": 0,
      "y": 0,
      "w": 0,
      "h": 0,
      "name": "item_51_1",
      "id": 52
    },
    {
      "graphicId": 3,
      "objPrivate": {
        "anchorX": 0.5,
        "anchorY": 0.5,
        "style": {
          "font": "KGPrimaryItalics",
          "fontStyle": "normal",
          "fontVariant": "normal",
          "fontWeight": "normal",
          "fontSize": 25,
          "lineHeight": 25,
          "lineSpacing": -5,
          "backgroundColor": null,
          "fill": "#0066cc",
          "align": "center",
          "boundsAlignH": "center",
          "boundsAlignV": "center",
          "stroke": "black",
          "strokeThickness": 0,
          "wordWrap": true,
          "wordWrapWidth": 800,
          "maxLines": 0,
          "tabs": 0
        },
        "text": "   ",
        "Click": {},
        "DragDrop": {},
        "multiDragDrop": {},
        "action": {
          "name": "list_9_item_1",
          "itemRef": {
            "align": "middle",
            "parent": "list_9",
            "index": 1,
            "anchor": "auto-fit",
            "count": 1
          }
        }
      },
      "x": 0,
      "y": 0,
      "w": 0,
      "h": 0,
      "name": "item_52_3",
      "id": 53
    },
    {
      "graphicId": 1,
      "objPrivate": {
        "anchorX": 0.5,
        "anchorY": 0.5,
        "keyImage": "box.png",
        "linkImage": "Develop/ImageQAs/Y3.NA.AS.UATCS.1B/box.png",
        "Click": {},
        "DragDrop": {},
        "multiDragDrop": {},
        "action": {
          "name": "list_9_item_2",
          "itemRef": {
            "align": "middle",
            "parent": "list_9",
            "index": 2,
            "anchor": "auto-fit",
            "count": 1
          }
        }
      },
      "x": 0,
      "y": 0,
      "w": 0,
      "h": 0,
      "name": "item_53_1",
      "id": 54
    },
    {
      "graphicId": 2,
      "x": -40.5,
      "y": -15.5,
      "objPrivate": {
        "centerX": 40.5,
        "centerY": 15.5,
        "lineWidth": 0,
        "lineColor": 0,
        "radius": 5,
        "Click": {},
        "DragDrop": {},
        "multiDragDrop": {},
        "action": {
          "name": "choice_input_10",
          "type": "input",
          "multiple": false,
          "toggle": false,
          "keyboard": "numbers1",
          "dataType": "auto",
          "maxLength": 3,
          "resultPosition": "right",
          "spacing": 0,
          "tabOrder": 0,
          "fontSize": 40,
          "itemRef": {
            "align": "middle",
            "parent": "list_9",
            "index": 2,
            "anchor": "auto-fit",
            "count": 2
          }
        }
      },
      "w": 81,
      "h": 31,
      "name": "item_54_2",
      "id": 55
    },
    {
      "graphicId": 3,
      "objPrivate": {
        "anchorX": 0.5,
        "anchorY": 0.5,
        "style": {
          "font": "KGPrimaryItalics",
          "fontStyle": "normal",
          "fontVariant": "normal",
          "fontWeight": "normal",
          "fontSize": 40,
          "lineHeight": 25,
          "lineSpacing": -5,
          "backgroundColor": null,
          "fill": "black",
          "align": "center",
          "boundsAlignH": "center",
          "boundsAlignV": "center",
          "stroke": "white",
          "strokeThickness": 2,
          "wordWrap": false,
          "wordWrapWidth": 800,
          "maxLines": 0,
          "tabs": 0,
          "width": 100,
          "height": 40,
          "textcolor": "#0066cc",
          "fontFamily": "KGPrimaryItalics",
          "textAlign": "center",
          "borderRadius": 5,
          "borderStyle": "solid",
          "borderWidth": 2,
          "borderColor": "#66ccff",
          "hidden": false,
          "maxLength": 500,
          "autofocus": false
        },
        "text": "",
        "Click": {},
        "DragDrop": {},
        "multiDragDrop": {},
        "action": {
          "name": "choice_input_10",
          "type": "input",
          "multiple": false,
          "toggle": false,
          "keyboard": "numbers1",
          "dataType": "auto",
          "maxLength": 3,
          "resultPosition": "right",
          "spacing": 0,
          "tabOrder": 0,
          "fontSize": 40,
          "itemRef": {
            "align": "middle",
            "parent": "list_9",
            "index": 2,
            "anchor": "auto-fit",
            "count": 3
          }
        }
      },
      "x": 0,
      "y": 2,
      "w": 61,
      "h": 31,
      "name": "item_55_3",
      "id": 56
    }
  ],
  "answers": [
    "choice_input_10>>106",
    "choice_input_3>>110",
    "choice_input_5>>110",
    "choice_input_7>>106"
  ],
  "answerShapes": [],
  "explains": [
    {
      "html": "<script>\ndocument.getElementsByClassName(\"explanation-wrapper\")[0].style.backgroundImage = \"url(https://starmathsonline.s3.amazonaws.com/Develop/ImageQAs/General/Explains_Y1-2-3/style_3/explain6.png)\";\n</script><u>Step 1: Get to know the compensation strategy.</u> <br/><br/>\n  \n<style>\n    table {\n        border-collapse: collapse;\n        background-color: rgba(224, 253, 255, 0.5);\n    }\n\n    td, th {\n        border: 3px solid #dddddd;\n        text-align: center;\n        padding: 4px;\n    }\n</style>\n\n<center>\n<table>\n  <tr>\n  \t<td> <u><b>Case 1</b></u> </td>\n    <td> <u><b>Case 2</b></u> </td>\n  </tr>\n  <tr>\n    <td>\n      25 + 9 <br/>\n      25 <font style=\"border-bottom: 4px solid yellow\">+ 10</font> = 35 <br/>\n      35 <font style=\"border-bottom: 4px solid green\">- 1</font> = 34 <br/>\n      25 + 9 = 34\n    </td>\n    <td>\n      73 + 24 <br/>\n      73 <font style=\"border-bottom: 4px solid yellow\">+ 30</font> = 103 <br/>\n      103 <font style=\"border-bottom: 4px solid green\">- 6</font> = 97 <br/>\n      73 + 24 = 97\n    </td>\n  </tr>\n</table>\n</center>"
    },
    {
      "html": "<script>\ndocument.getElementsByClassName(\"explanation-wrapper\")[0].style.backgroundImage = \"url(https://starmathsonline.s3.amazonaws.com/Develop/ImageQAs/General/Explains_Y1-2-3/style_3/explain6.png)\";\n</script><u>Step 2: Now let's use the compensation strategy to solve 20 + 86.</u> <br/>\n  \n<style>\n    table {\n        border-collapse: collapse;\n        background-color: rgba(224, 253, 255, 0.5);\n    }\n\n    td, th {\n        border: 3px solid #dddddd;\n        text-align: center;\n        padding: 4px;\n    }\n</style>\n\n<center>\n<table>\n  <tr>\n    <td>\n      20 + 86 <br/><br/>\n        \n      20 + 90 = 110 <br/>\n      *<b>Hint</b>: <b>90</b> is the <b>rounded up</b> number of <b>86</b>. <br/><br/>\n        \n      110 - 4 = 106 <br/>\n      *<b>Hint</b>: <b>4</b> is the <b>compensation</b> of rounding up from 86 to 90. <br/><br/>\n        \n      So, 20 + 86 = <b>106</b>.\n    </td>\n  </tr>\n</table>\n</center>"
    }
  ]
}