{
  "assets-sort-type": "name",
  "collision-matrix": [
    [
      true
    ]
  ],
  "design-resolution-height": 1080,
  "design-resolution-width": 1920,
  "excluded-modules": [
    "Geom Utils",
    "MotionStreak",
    "NodePool",
    "Physics",
    "TiledMap",
    "VideoPlayer",
    "3D",
    "3D Primitive",
    "3D Physics/cannon.js",
    "3D Physics/Builtin",
    "3D Particle"
  ],
  "facebook": {
    "appID": "",
    "audience": {
      "enable": false
    },
    "enable": false,
    "live": {
      "enable": false
    }
  },
  "fit-height": true,
  "fit-width": true,
  "group-list": [
    "default"
  ],
  "last-module-event-record-time": 1589530526269,
  "simulator-orientation": false,
  "simulator-resolution": {
    "height": 640,
    "width": 960
  },
  "use-customize-simulator": true,
  "use-project-simulator-setting": false,
  "start-scene": "current"
}
